NTPF Outpatient Waiting List: EDA, Hypothesis Testing & Temporal Analysis
…
4.4 Biggest monthly increases

Code

# Identify the largest positive monthly jumps in patient counts among specialties
biggest_increases <- grouped %>%
  arrange(desc(change)) %>%
  slice_head(n = 10) %>%
  select(speciality, month_name, monthly_total, change, pct_change)
print(biggest_increases)

# A tibble: 70 × 5
# Groups:   speciality [10]
   speciality  month_name   monthly_total change pct_change
   <chr>       <chr>                <dbl>  <dbl>      <dbl>
 1 Cardiology  febrero 2025         38513   1130      3.02 
 2 Cardiology  julio 2025           40418   1095      2.78 
 3 Cardiology  marzo 2025           39350    837      2.17 
 4 Cardiology  junio 2025           39323    757      1.96 
 5 Cardiology  agosto 2025          40873    455      1.13 
 6 Cardiology  abril 2025           39256    -94     -0.239
 7 Cardiology  mayo 2025            38566   -690     -1.76 
 8 Dermatology julio 2025           62079   1978      3.29 
 9 Dermatology junio 2025           60101   1473      2.51 
10 Dermatology agosto 2025          63246   1167      1.88 
# ℹ 60 more rows
…
